MidtermProject
…
print(clabsi_by_County) 

# A tibble: 61 × 4
   County                 Total_Infections Total_Central_Line_Days CLABSI_Rate
   <chr>                             <dbl>                   <dbl>       <dbl>
 1 ""                             20399                  23689271        0.861
 2 "Alameda"                       1070.                  1232060.       0.868
 3 "Alameda-Contra Costa"            11                     11239        0.979
 4 "Amador"                          10                     19097        0.524
 5 "Butte"                           42                    181631        0.231
 6 "Calaveras"                        1                      5785        0.173
 7 "Colusa"                           9.42                  12715.       0.741
 8 "Contra Costa"                   473                    536568        0.882
 9 "Del Norte"                        1                      7799        0.128
10 "El Dorado"                        8                     46191        0.173
# ℹ 51 more rows
…
summary_by_type <- cleaned_data1 %>%
  group_by(Facility_Type) %>%
  summarize(Mean_InfectRate = mean(InfectNumber, na.rm = TRUE),
            SD_InfectRate = sd(InfectNumber, na.rm = TRUE))

print(summary_by_type)

# A tibble: 23 × 3
   Facility_Type                         Mean_InfectRate SD_InfectRate
   <chr>                                           <dbl>         <dbl>
 1 Community (125-250 Beds)                        4.61          9.66 
 2 Community (<125 Beds)                           0.986         1.68 
 3 Community (>250 Beds)                           9.25          6.98 
 4 Community, 125-250 Beds                         3.60          7.53 
 5 Community, <125 Beds                            1.28          2.37 
 6 Community, >250 Beds                            6.58          6.39 
 7 Critical Access                                 0.621         2.20 
 8 Free-Standing Rehabilitation                    0.636         2.27 
 9 Free-Standing Rehabilitation Hospital           0.176         0.387
10 LTAC                                           15.4          13.5  
# ℹ 13 more rows

#The relationship between the incidence of CLABSI and the size of the hospital

cleaned_data1 <- cleaned_data1 %>%
  mutate(CLABSI_Rate = (InfectNumber / CentralLINE_Days) * 1000)
avg_infect_rate_by_type <- cleaned_data1 %>%
  group_by(Facility_Type) %>%
  summarize(Mean_CLABSI_Rate = mean(CLABSI_Rate, na.rm = TRUE),
            Median_CLABSI_Rate = median(CLABSI_Rate, na.rm = TRUE))

print(avg_infect_rate_by_type)

# A tibble: 23 × 3
   Facility_Type                         Mean_CLABSI_Rate Median_CLABSI_Rate
   <chr>                                            <dbl>              <dbl>
 1 Community (125-250 Beds)                         0.770              0.633
 2 Community (<125 Beds)                            0.524              0    
 3 Community (>250 Beds)                            0.763              0.717
 4 Community, 125-250 Beds                          0.770              0.533
 5 Community, <125 Beds                             0.887              0    
 6 Community, >250 Beds                             0.730              0.635
 7 Critical Access                                  0.266              0    
 8 Free-Standing Rehabilitation                     0.113              0    
 9 Free-Standing Rehabilitation Hospital            0.353              0    
10 LTAC                                             1.64               1.44 
# ℹ 13 more rows
…
